{
  "css_assets": [],
  "external_js": [],
  "global": false,
  "help_text": "",
  "host_template_types": ["PAGE"],
  "icon": "react",
  "js_assets": [],
  "label": "TNS Student Portal Test Stable- Scheduling",
  "other_assets": [],
  "smart_type": "NOT_SMART",
  "tags": [],
  "is_available_for_new_content": true
}
